[
  {
    "timestamp": "2025-09-05T15:38:34.223453",
    "test_name": "Authentication",
    "success": true,
    "response_data": {
      "status_code": 200,
      "token_acquired": true
    },
    "error": null
  },
  {
    "timestamp": "2025-09-05T15:38:37.183403",
    "test_name": "GET /menus/ - 메뉴 목록 조회",
    "success": true,
    "response_data": {
      "status_code": 200,
      "data": {
        "items": [
          {
            "menu_nm": "사용자관리",
            "progrm_file_nm": "/admin/users",
            "menu_dc": "사용자 관리",
            "upper_menu_no": "1000000",
            "menu_ordr": "1",
            "menu_level": null,
            "leaf_at": null,
            "relate_image_path": null,
            "relate_image_nm": null,
            "use_at": "Y",
            "delete_at": "N",
            "menu_id": null,
            "menu_no": "1010000",
            "frst_register_id": "SYSTEM",
            "frst_regist_pnttm": "2025-09-02T17:22:50.252113",
            "last_updusr_id": null,
            "last_updt_pnttm": null
          },
          {
            "menu_nm": "시스템관리",
            "progrm_file_nm": "",
            "menu_dc": "시스템 관리 메뉴",
            "upper_menu_no": null,
            "menu_ordr": "1",
            "menu_level": null,
            "leaf_at": null,
            "relate_image_path": null,
            "relate_image_nm": null,
            "use_at": "Y",
            "delete_at": "N",
            "menu_id": null,
            "menu_no": "1000000",
            "frst_register_id": "SYSTEM",
            "frst_regist_pnttm": "2025-09-02T17:22:50.252113",
            "last_updusr_id": null,
            "last_updt_pnttm": null
          },
          {
            "menu_nm": "테스트 메뉴 1757049167",
            "progrm_file_nm": "/test-menu-1757049167",
            "menu_dc": "테스트용 메뉴입니다",
            "upper_menu_no": null,
            "menu_ordr": "2",
            "menu_level": null,
            "leaf_at": null,
            "relate_image_path": null,
            "relate_image_nm": null,
            "use_at": "Y",
            "delete_at": "N",
            "menu_id": null,
            "menu_no": "TEST_MENU_1757049167",
            "frst_register_id": "system",
            "frst_regist_pnttm": "2025-09-05T14:12:49.836777",
            "last_updusr_id": null,
            "last_updt_pnttm": "2025-09-05T14:12:49.836777"
          },
          {
            "menu_nm": "권한관리",
            "progrm_file_nm": "/admin/auth",
            "menu_dc": "권한 관리",
            "upper_menu_no": "1000000",
            "menu_ordr": "2",
            "menu_level": null,
            "leaf_at": null,
            "relate_image_path": null,
            "relate_image_nm": null,
            "use_at": "Y",
            "delete_at": "N",
            "menu_id": null,
            "menu_no": "1020000",
            "frst_register_id": "SYSTEM",
            "frst_regist_pnttm": "2025-09-02T17:22:50.252113",
            "last_updusr_id": null,
            "last_updt_pnttm": null
          },
          {
            "menu_nm": "메뉴관리",
            "progrm_file_nm": "/admin/menus",
            "menu_dc": "메뉴 관리",
            "upper_menu_no": "1000000",
            "menu_ordr": "3",
            "menu_level": null,
            "leaf_at": null,
            "relate_image_path": null,
            "relate_image_nm": null,
            "use_at": "Y",
            "delete_at": "N",
            "menu_id": null,
            "menu_no": "1030000",
            "frst_register_id": "SYSTEM",
            "frst_regist_pnttm": "2025-09-02T17:22:50.252113",
            "last_updusr_id": null,
            "last_updt_pnttm": null
          },
          {
            "menu_nm": "테스트 메뉴 1757049213",
            "progrm_file_nm": "/test-menu-1757049213",
            "menu_dc": "테스트용 메뉴입니다",
            "upper_menu_no": null,
            "menu_ordr": "3",
            "menu_level": null,
            "leaf_at": null,
            "relate_image_path": null,
            "relate_image_nm": null,
            "use_at": "Y",
            "delete_at": "N",
            "menu_id": null,
            "menu_no": "TEST_MENU_1757049213",
            "frst_register_id": "system",
            "frst_regist_pnttm": "2025-09-05T14:13:35.984351",
            "last_updusr_id": null,
            "last_updt_pnttm": "2025-09-05T14:13:35.984351"
          },
          {
            "menu_nm": "테스트 메뉴 1757049317",
            "progrm_file_nm": "/test-menu-1757049317",
            "menu_dc": "테스트용 메뉴입니다",
            "upper_menu_no": null,
            "menu_ordr": "4",
            "menu_level": null,
            "leaf_at": null,
            "relate_image_path": null,
            "relate_image_nm": null,
            "use_at": "Y",
            "delete_at": "N",
            "menu_id": null,
            "menu_no": "TEST_MENU_1757049317",
            "frst_register_id": "system",
            "frst_regist_pnttm": "2025-09-05T14:15:19.471190",
            "last_updusr_id": null,
            "last_updt_pnttm": "2025-09-05T14:15:19.471190"
          },
          {
            "menu_nm": "테스트 메뉴 1757049390",
            "progrm_file_nm": "/test-menu-1757049390",
            "menu_dc": "테스트용 메뉴입니다",
            "upper_menu_no": null,
            "menu_ordr": "5",
            "menu_level": null,
            "leaf_at": null,
            "relate_image_path": null,
            "relate_image_nm": null,
            "use_at": "Y",
            "delete_at": "N",
            "menu_id": null,
            "menu_no": "TEST_MENU_1757049390",
            "frst_register_id": "system",
            "frst_regist_pnttm": "2025-09-05T14:16:32.407410",
            "last_updusr_id": null,
            "last_updt_pnttm": "2025-09-05T14:16:32.407410"
          },
          {
            "menu_nm": "테스트 메뉴 1757049444",
            "progrm_file_nm": "/test-menu-1757049444",
            "menu_dc": "테스트용 메뉴입니다",
            "upper_menu_no": null,
            "menu_ordr": "6",
            "menu_level": null,
            "leaf_at": null,
            "relate_image_path": null,
            "relate_image_nm": null,
            "use_at": "Y",
            "delete_at": "N",
            "menu_id": null,
            "menu_no": "TEST_MENU_1757049444",
            "frst_register_id": "system",
            "frst_regist_pnttm": "2025-09-05T14:17:26.193947",
            "last_updusr_id": null,
            "last_updt_pnttm": "2025-09-05T14:17:26.193947"
          },
          {
            "menu_nm": "테스트 메뉴 1757051849",
            "progrm_file_nm": "/test-menu-1757051849",
            "menu_dc": "테스트용 메뉴입니다",
            "upper_menu_no": null,
            "menu_ordr": "7",
            "menu_level": null,
            "leaf_at": null,
            "relate_image_path": null,
            "relate_image_nm": null,
            "use_at": "Y",
            "delete_at": "N",
            "menu_id": null,
            "menu_no": "TEST_MENU_1757051849",
            "frst_register_id": "system",
            "frst_regist_pnttm": "2025-09-05T14:57:31.951427",
            "last_updusr_id": null,
            "last_updt_pnttm": "2025-09-05T14:57:31.951427"
          }
        ],
        "total": 15,
        "page": 1,
        "size": 10,
        "pages": 2
      }
    },
    "error": null
  },
  {
    "timestamp": "2025-09-05T15:38:39.257887",
    "test_name": "GET /menus/tree - 메뉴 트리 조회",
    "success": true,
    "response_data": {
      "status_code": 200,
      "data": [
        {
          "menu_id": "1000000",
          "menu_nm": "시스템관리",
          "menu_level": "1",
          "menu_ordr": "1",
          "leaf_at": "N",
          "children": [
            {
              "menu_id": "1010000",
              "menu_nm": "사용자관리",
              "menu_level": "2",
              "menu_ordr": "1",
              "leaf_at": "Y",
              "children": []
            },
            {
              "menu_id": "1020000",
              "menu_nm": "권한관리",
              "menu_level": "2",
              "menu_ordr": "2",
              "leaf_at": "Y",
              "children": []
            },
            {
              "menu_id": "1030000",
              "menu_nm": "메뉴관리",
              "menu_level": "2",
              "menu_ordr": "3",
              "leaf_at": "Y",
              "children": []
            }
          ]
        },
        {
          "menu_id": "TEST_MENU_1757049167",
          "menu_nm": "테스트 메뉴 1757049167",
          "menu_level": "1",
          "menu_ordr": "2",
          "leaf_at": "Y",
          "children": []
        },
        {
          "menu_id": "TEST_MENU_1757049213",
          "menu_nm": "테스트 메뉴 1757049213",
          "menu_level": "1",
          "menu_ordr": "3",
          "leaf_at": "Y",
          "children": []
        },
        {
          "menu_id": "TEST_MENU_1757049317",
          "menu_nm": "테스트 메뉴 1757049317",
          "menu_level": "1",
          "menu_ordr": "4",
          "leaf_at": "Y",
          "children": []
        },
        {
          "menu_id": "TEST_MENU_1757049390",
          "menu_nm": "테스트 메뉴 1757049390",
          "menu_level": "1",
          "menu_ordr": "5",
          "leaf_at": "Y",
          "children": []
        },
        {
          "menu_id": "TEST_MENU_1757049444",
          "menu_nm": "테스트 메뉴 1757049444",
          "menu_level": "1",
          "menu_ordr": "6",
          "leaf_at": "Y",
          "children": []
        },
        {
          "menu_id": "TEST_MENU_1757051849",
          "menu_nm": "테스트 메뉴 1757051849",
          "menu_level": "1",
          "menu_ordr": "7",
          "leaf_at": "Y",
          "children": []
        }
      ]
    },
    "error": null
  },
  {
    "timestamp": "2025-09-05T15:38:41.314609",
    "test_name": "GET /menus/root - 루트 메뉴 조회",
    "success": true,
    "response_data": {
      "status_code": 200,
      "data": [
        {
          "menu_nm": "시스템관리",
          "progrm_file_nm": "",
          "menu_dc": "시스템 관리 메뉴",
          "upper_menu_no": null,
          "menu_ordr": "1",
          "menu_level": null,
          "leaf_at": null,
          "relate_image_path": null,
          "relate_image_nm": null,
          "use_at": "Y",
          "delete_at": "N",
          "menu_id": null,
          "menu_no": "1000000",
          "frst_register_id": "SYSTEM",
          "frst_regist_pnttm": "2025-09-02T17:22:50.252113",
          "last_updusr_id": null,
          "last_updt_pnttm": null
        },
        {
          "menu_nm": "테스트 메뉴 1757049167",
          "progrm_file_nm": "/test-menu-1757049167",
          "menu_dc": "테스트용 메뉴입니다",
          "upper_menu_no": null,
          "menu_ordr": "2",
          "menu_level": null,
          "leaf_at": null,
          "relate_image_path": null,
          "relate_image_nm": null,
          "use_at": "Y",
          "delete_at": "N",
          "menu_id": null,
          "menu_no": "TEST_MENU_1757049167",
          "frst_register_id": "system",
          "frst_regist_pnttm": "2025-09-05T14:12:49.836777",
          "last_updusr_id": null,
          "last_updt_pnttm": "2025-09-05T14:12:49.836777"
        },
        {
          "menu_nm": "테스트 메뉴 1757049213",
          "progrm_file_nm": "/test-menu-1757049213",
          "menu_dc": "테스트용 메뉴입니다",
          "upper_menu_no": null,
          "menu_ordr": "3",
          "menu_level": null,
          "leaf_at": null,
          "relate_image_path": null,
          "relate_image_nm": null,
          "use_at": "Y",
          "delete_at": "N",
          "menu_id": null,
          "menu_no": "TEST_MENU_1757049213",
          "frst_register_id": "system",
          "frst_regist_pnttm": "2025-09-05T14:13:35.984351",
          "last_updusr_id": null,
          "last_updt_pnttm": "2025-09-05T14:13:35.984351"
        },
        {
          "menu_nm": "테스트 메뉴 1757049317",
          "progrm_file_nm": "/test-menu-1757049317",
          "menu_dc": "테스트용 메뉴입니다",
          "upper_menu_no": null,
          "menu_ordr": "4",
          "menu_level": null,
          "leaf_at": null,
          "relate_image_path": null,
          "relate_image_nm": null,
          "use_at": "Y",
          "delete_at": "N",
          "menu_id": null,
          "menu_no": "TEST_MENU_1757049317",
          "frst_register_id": "system",
          "frst_regist_pnttm": "2025-09-05T14:15:19.471190",
          "last_updusr_id": null,
          "last_updt_pnttm": "2025-09-05T14:15:19.471190"
        },
        {
          "menu_nm": "테스트 메뉴 1757049390",
          "progrm_file_nm": "/test-menu-1757049390",
          "menu_dc": "테스트용 메뉴입니다",
          "upper_menu_no": null,
          "menu_ordr": "5",
          "menu_level": null,
          "leaf_at": null,
          "relate_image_path": null,
          "relate_image_nm": null,
          "use_at": "Y",
          "delete_at": "N",
          "menu_id": null,
          "menu_no": "TEST_MENU_1757049390",
          "frst_register_id": "system",
          "frst_regist_pnttm": "2025-09-05T14:16:32.407410",
          "last_updusr_id": null,
          "last_updt_pnttm": "2025-09-05T14:16:32.407410"
        },
        {
          "menu_nm": "테스트 메뉴 1757049444",
          "progrm_file_nm": "/test-menu-1757049444",
          "menu_dc": "테스트용 메뉴입니다",
          "upper_menu_no": null,
          "menu_ordr": "6",
          "menu_level": null,
          "leaf_at": null,
          "relate_image_path": null,
          "relate_image_nm": null,
          "use_at": "Y",
          "delete_at": "N",
          "menu_id": null,
          "menu_no": "TEST_MENU_1757049444",
          "frst_register_id": "system",
          "frst_regist_pnttm": "2025-09-05T14:17:26.193947",
          "last_updusr_id": null,
          "last_updt_pnttm": "2025-09-05T14:17:26.193947"
        },
        {
          "menu_nm": "테스트 메뉴 1757051849",
          "progrm_file_nm": "/test-menu-1757051849",
          "menu_dc": "테스트용 메뉴입니다",
          "upper_menu_no": null,
          "menu_ordr": "7",
          "menu_level": null,
          "leaf_at": null,
          "relate_image_path": null,
          "relate_image_nm": null,
          "use_at": "Y",
          "delete_at": "N",
          "menu_id": null,
          "menu_no": "TEST_MENU_1757051849",
          "frst_register_id": "system",
          "frst_regist_pnttm": "2025-09-05T14:57:31.951427",
          "last_updusr_id": null,
          "last_updt_pnttm": "2025-09-05T14:57:31.951427"
        }
      ]
    },
    "error": null
  },
  {
    "timestamp": "2025-09-05T15:38:43.390650",
    "test_name": "GET /menus/statistics - 메뉴 통계 조회",
    "success": true,
    "response_data": {
      "status_code": 200,
      "data": {
        "total_menus": 15,
        "active_menus": 10,
        "inactive_menus": 5,
        "leaf_menus": 15,
        "max_depth": 2,
        "avg_children_per_menu": 0.25
      }
    },
    "error": null
  },
  {
    "timestamp": "2025-09-05T15:38:45.455283",
    "test_name": "POST /menus/ - 메뉴 생성",
    "success": true,
    "response_data": {
      "status_code": 201,
      "data": {
        "menu_nm": "테스트 메뉴",
        "progrm_file_nm": "/test-menu",
        "menu_dc": null,
        "upper_menu_no": null,
        "menu_ordr": "13",
        "menu_level": null,
        "leaf_at": null,
        "relate_image_path": null,
        "relate_image_nm": null,
        "use_at": "Y",
        "delete_at": "N",
        "menu_id": null,
        "menu_no": "TEST_MENU_1757054323",
        "frst_register_id": "system",
        "frst_regist_pnttm": "2025-09-05T15:38:45.428746",
        "last_updusr_id": null,
        "last_updt_pnttm": "2025-09-05T15:38:45.428746"
      }
    },
    "error": null
  },
  {
    "timestamp": "2025-09-05T15:38:47.524772",
    "test_name": "GET /menus/TEST_MENU_1757054323 - 메뉴 상세 조회",
    "success": true,
    "response_data": {
      "status_code": 200,
      "data": {
        "menu_nm": "테스트 메뉴",
        "progrm_file_nm": "/test-menu",
        "menu_dc": null,
        "upper_menu_no": null,
        "menu_ordr": "13",
        "menu_level": null,
        "leaf_at": null,
        "relate_image_path": null,
        "relate_image_nm": null,
        "use_at": "Y",
        "delete_at": "N",
        "menu_id": null,
        "menu_no": "TEST_MENU_1757054323",
        "frst_register_id": "system",
        "frst_regist_pnttm": "2025-09-05T15:38:45.428746",
        "last_updusr_id": null,
        "last_updt_pnttm": "2025-09-05T15:38:45.428746"
      }
    },
    "error": null
  },
  {
    "timestamp": "2025-09-05T15:38:49.590966",
    "test_name": "PUT /menus/TEST_MENU_1757054323 - 메뉴 수정",
    "success": true,
    "response_data": {
      "status_code": 200,
      "data": {
        "menu_nm": "수정된 테스트 메뉴",
        "progrm_file_nm": "/test-menu",
        "menu_dc": null,
        "upper_menu_no": null,
        "menu_ordr": "13",
        "menu_level": null,
        "leaf_at": null,
        "relate_image_path": null,
        "relate_image_nm": null,
        "use_at": "Y",
        "delete_at": "N",
        "menu_id": null,
        "menu_no": "TEST_MENU_1757054323",
        "frst_register_id": "system",
        "frst_regist_pnttm": "2025-09-05T15:38:45.428746",
        "last_updusr_id": null,
        "last_updt_pnttm": "2025-09-05T15:38:49.578790"
      }
    },
    "error": null
  },
  {
    "timestamp": "2025-09-05T15:38:51.660039",
    "test_name": "GET /menus/TEST_MENU_1757054323/children - 하위 메뉴 조회",
    "success": true,
    "response_data": {
      "status_code": 200,
      "data": []
    },
    "error": null
  },
  {
    "timestamp": "2025-09-05T15:38:53.714220",
    "test_name": "GET /menus/TEST_MENU_1757054323/breadcrumb - 메뉴 경로 조회",
    "success": true,
    "response_data": {
      "status_code": 200,
      "data": [
        {
          "menu_id": "TEST_MENU_1757054323",
          "menu_nm": "수정된 테스트 메뉴",
          "menu_level": "13",
          "full_path": "수정된 테스트 메뉴",
          "breadcrumb": [
            {
              "menu_id": "TEST_MENU_1757054323",
              "menu_nm": "수정된 테스트 메뉴"
            }
          ]
        }
      ]
    },
    "error": null
  },
  {
    "timestamp": "2025-09-05T15:38:55.783629",
    "test_name": "DELETE /menus/TEST_MENU_1757054323 - 메뉴 삭제",
    "success": true,
    "response_data": {
      "status_code": 200,
      "data": {
        "message": "메뉴가 삭제되었습니다: TEST_MENU_1757054323"
      }
    },
    "error": null
  },
  {
    "timestamp": "2025-09-05T15:38:57.840337",
    "test_name": "POST /menus/validate - 메뉴 검증",
    "success": true,
    "response_data": {
      "status_code": 200,
      "data": {
        "is_valid": true,
        "validation_results": [
          {
            "is_valid": true,
            "menu_id": "VALIDATION_TEST",
            "errors": [],
            "warnings": [],
            "suggestions": []
          }
        ],
        "summary": {
          "total_checked": 1,
          "valid_count": 1,
          "error_count": 0,
          "warning_count": 0
        }
      }
    },
    "error": null
  },
  {
    "timestamp": "2025-09-05T15:38:59.905295",
    "test_name": "GET /menus/export/json - 메뉴 데이터 내보내기",
    "success": true,
    "response_data": {
      "status_code": 200,
      "data": {
        "export_id": "b7958088-20e1-4aef-8695-bb0a54904dec",
        "file_name": "menu_export_b7958088.json",
        "file_size": 3445,
        "download_url": "/api/v1/files/download/menu_export_b7958088.json",
        "expires_at": "2025-09-06T15:38:59.883212"
      }
    },
    "error": null
  }
]