[
  {
    "timestamp": "2025-09-05T15:32:13.322379",
    "test_name": "Authentication",
    "success": true,
    "response_data": {
      "status_code": 200,
      "token_acquired": true
    },
    "error": null
  },
  {
    "timestamp": "2025-09-05T15:32:15.403849",
    "test_name": "GET /menus/ - 메뉴 목록 조회",
    "success": true,
    "response_data": {
      "status_code": 200,
      "data": {
        "items": [
          {
            "menu_nm": "시스템관리",
            "progrm_file_nm": "",
            "menu_dc": "시스템 관리 메뉴",
            "upper_menu_no": null,
            "menu_ordr": "1",
            "menu_level": null,
            "leaf_at": null,
            "relate_image_path": null,
            "relate_image_nm": null,
            "use_at": "Y",
            "delete_at": "N",
            "menu_id": null,
            "menu_no": "1000000",
            "frst_register_id": "SYSTEM",
            "frst_regist_pnttm": "2025-09-02T17:22:50.252113",
            "last_updusr_id": null,
            "last_updt_pnttm": null
          },
          {
            "menu_nm": "사용자관리",
            "progrm_file_nm": "/admin/users",
            "menu_dc": "사용자 관리",
            "upper_menu_no": "1000000",
            "menu_ordr": "1",
            "menu_level": null,
            "leaf_at": null,
            "relate_image_path": null,
            "relate_image_nm": null,
            "use_at": "Y",
            "delete_at": "N",
            "menu_id": null,
            "menu_no": "1010000",
            "frst_register_id": "SYSTEM",
            "frst_regist_pnttm": "2025-09-02T17:22:50.252113",
            "last_updusr_id": null,
            "last_updt_pnttm": null
          },
          {
            "menu_nm": "권한관리",
            "progrm_file_nm": "/admin/auth",
            "menu_dc": "권한 관리",
            "upper_menu_no": "1000000",
            "menu_ordr": "2",
            "menu_level": null,
            "leaf_at": null,
            "relate_image_path": null,
            "relate_image_nm": null,
            "use_at": "Y",
            "delete_at": "N",
            "menu_id": null,
            "menu_no": "1020000",
            "frst_register_id": "SYSTEM",
            "frst_regist_pnttm": "2025-09-02T17:22:50.252113",
            "last_updusr_id": null,
            "last_updt_pnttm": null
          },
          {
            "menu_nm": "테스트 메뉴 1757049167",
            "progrm_file_nm": "/test-menu-1757049167",
            "menu_dc": "테스트용 메뉴입니다",
            "upper_menu_no": null,
            "menu_ordr": "2",
            "menu_level": null,
            "leaf_at": null,
            "relate_image_path": null,
            "relate_image_nm": null,
            "use_at": "Y",
            "delete_at": "N",
            "menu_id": null,
            "menu_no": "TEST_MENU_1757049167",
            "frst_register_id": "system",
            "frst_regist_pnttm": "2025-09-05T14:12:49.836777",
            "last_updusr_id": null,
            "last_updt_pnttm": "2025-09-05T14:12:49.836777"
          },
          {
            "menu_nm": "메뉴관리",
            "progrm_file_nm": "/admin/menus",
            "menu_dc": "메뉴 관리",
            "upper_menu_no": "1000000",
            "menu_ordr": "3",
            "menu_level": null,
            "leaf_at": null,
            "relate_image_path": null,
            "relate_image_nm": null,
            "use_at": "Y",
            "delete_at": "N",
            "menu_id": null,
            "menu_no": "1030000",
            "frst_register_id": "SYSTEM",
            "frst_regist_pnttm": "2025-09-02T17:22:50.252113",
            "last_updusr_id": null,
            "last_updt_pnttm": null
          },
          {
            "menu_nm": "테스트 메뉴 1757049213",
            "progrm_file_nm": "/test-menu-1757049213",
            "menu_dc": "테스트용 메뉴입니다",
            "upper_menu_no": null,
            "menu_ordr": "3",
            "menu_level": null,
            "leaf_at": null,
            "relate_image_path": null,
            "relate_image_nm": null,
            "use_at": "Y",
            "delete_at": "N",
            "menu_id": null,
            "menu_no": "TEST_MENU_1757049213",
            "frst_register_id": "system",
            "frst_regist_pnttm": "2025-09-05T14:13:35.984351",
            "last_updusr_id": null,
            "last_updt_pnttm": "2025-09-05T14:13:35.984351"
          },
          {
            "menu_nm": "테스트 메뉴 1757049317",
            "progrm_file_nm": "/test-menu-1757049317",
            "menu_dc": "테스트용 메뉴입니다",
            "upper_menu_no": null,
            "menu_ordr": "4",
            "menu_level": null,
            "leaf_at": null,
            "relate_image_path": null,
            "relate_image_nm": null,
            "use_at": "Y",
            "delete_at": "N",
            "menu_id": null,
            "menu_no": "TEST_MENU_1757049317",
            "frst_register_id": "system",
            "frst_regist_pnttm": "2025-09-05T14:15:19.471190",
            "last_updusr_id": null,
            "last_updt_pnttm": "2025-09-05T14:15:19.471190"
          },
          {
            "menu_nm": "테스트 메뉴 1757049390",
            "progrm_file_nm": "/test-menu-1757049390",
            "menu_dc": "테스트용 메뉴입니다",
            "upper_menu_no": null,
            "menu_ordr": "5",
            "menu_level": null,
            "leaf_at": null,
            "relate_image_path": null,
            "relate_image_nm": null,
            "use_at": "Y",
            "delete_at": "N",
            "menu_id": null,
            "menu_no": "TEST_MENU_1757049390",
            "frst_register_id": "system",
            "frst_regist_pnttm": "2025-09-05T14:16:32.407410",
            "last_updusr_id": null,
            "last_updt_pnttm": "2025-09-05T14:16:32.407410"
          },
          {
            "menu_nm": "테스트 메뉴 1757049444",
            "progrm_file_nm": "/test-menu-1757049444",
            "menu_dc": "테스트용 메뉴입니다",
            "upper_menu_no": null,
            "menu_ordr": "6",
            "menu_level": null,
            "leaf_at": null,
            "relate_image_path": null,
            "relate_image_nm": null,
            "use_at": "Y",
            "delete_at": "N",
            "menu_id": null,
            "menu_no": "TEST_MENU_1757049444",
            "frst_register_id": "system",
            "frst_regist_pnttm": "2025-09-05T14:17:26.193947",
            "last_updusr_id": null,
            "last_updt_pnttm": "2025-09-05T14:17:26.193947"
          },
          {
            "menu_nm": "테스트 메뉴 1757051849",
            "progrm_file_nm": "/test-menu-1757051849",
            "menu_dc": "테스트용 메뉴입니다",
            "upper_menu_no": null,
            "menu_ordr": "7",
            "menu_level": null,
            "leaf_at": null,
            "relate_image_path": null,
            "relate_image_nm": null,
            "use_at": "Y",
            "delete_at": "N",
            "menu_id": null,
            "menu_no": "TEST_MENU_1757051849",
            "frst_register_id": "system",
            "frst_regist_pnttm": "2025-09-05T14:57:31.951427",
            "last_updusr_id": null,
            "last_updt_pnttm": "2025-09-05T14:57:31.951427"
          }
        ],
        "total": 12,
        "page": 1,
        "size": 10,
        "pages": 2
      }
    },
    "error": null
  },
  {
    "timestamp": "2025-09-05T15:32:17.465026",
    "test_name": "GET /menus/tree - 메뉴 트리 조회",
    "success": true,
    "response_data": {
      "status_code": 200,
      "data": [
        {
          "menu_id": "1000000",
          "menu_nm": "시스템관리",
          "menu_level": "1",
          "menu_ordr": "1",
          "leaf_at": "N",
          "children": [
            {
              "menu_id": "1010000",
              "menu_nm": "사용자관리",
              "menu_level": "2",
              "menu_ordr": "1",
              "leaf_at": "Y",
              "children": []
            },
            {
              "menu_id": "1020000",
              "menu_nm": "권한관리",
              "menu_level": "2",
              "menu_ordr": "2",
              "leaf_at": "Y",
              "children": []
            },
            {
              "menu_id": "1030000",
              "menu_nm": "메뉴관리",
              "menu_level": "2",
              "menu_ordr": "3",
              "leaf_at": "Y",
              "children": []
            }
          ]
        },
        {
          "menu_id": "TEST_MENU_1757049167",
          "menu_nm": "테스트 메뉴 1757049167",
          "menu_level": "1",
          "menu_ordr": "2",
          "leaf_at": "Y",
          "children": []
        },
        {
          "menu_id": "TEST_MENU_1757049213",
          "menu_nm": "테스트 메뉴 1757049213",
          "menu_level": "1",
          "menu_ordr": "3",
          "leaf_at": "Y",
          "children": []
        },
        {
          "menu_id": "TEST_MENU_1757049317",
          "menu_nm": "테스트 메뉴 1757049317",
          "menu_level": "1",
          "menu_ordr": "4",
          "leaf_at": "Y",
          "children": []
        },
        {
          "menu_id": "TEST_MENU_1757049390",
          "menu_nm": "테스트 메뉴 1757049390",
          "menu_level": "1",
          "menu_ordr": "5",
          "leaf_at": "Y",
          "children": []
        },
        {
          "menu_id": "TEST_MENU_1757049444",
          "menu_nm": "테스트 메뉴 1757049444",
          "menu_level": "1",
          "menu_ordr": "6",
          "leaf_at": "Y",
          "children": []
        },
        {
          "menu_id": "TEST_MENU_1757051849",
          "menu_nm": "테스트 메뉴 1757051849",
          "menu_level": "1",
          "menu_ordr": "7",
          "leaf_at": "Y",
          "children": []
        }
      ]
    },
    "error": null
  },
  {
    "timestamp": "2025-09-05T15:32:19.541420",
    "test_name": "GET /menus/root - 루트 메뉴 조회",
    "success": true,
    "response_data": {
      "status_code": 200,
      "data": [
        {
          "menu_nm": "시스템관리",
          "progrm_file_nm": "",
          "menu_dc": "시스템 관리 메뉴",
          "upper_menu_no": null,
          "menu_ordr": "1",
          "menu_level": null,
          "leaf_at": null,
          "relate_image_path": null,
          "relate_image_nm": null,
          "use_at": "Y",
          "delete_at": "N",
          "menu_id": null,
          "menu_no": "1000000",
          "frst_register_id": "SYSTEM",
          "frst_regist_pnttm": "2025-09-02T17:22:50.252113",
          "last_updusr_id": null,
          "last_updt_pnttm": null
        },
        {
          "menu_nm": "테스트 메뉴 1757049167",
          "progrm_file_nm": "/test-menu-1757049167",
          "menu_dc": "테스트용 메뉴입니다",
          "upper_menu_no": null,
          "menu_ordr": "2",
          "menu_level": null,
          "leaf_at": null,
          "relate_image_path": null,
          "relate_image_nm": null,
          "use_at": "Y",
          "delete_at": "N",
          "menu_id": null,
          "menu_no": "TEST_MENU_1757049167",
          "frst_register_id": "system",
          "frst_regist_pnttm": "2025-09-05T14:12:49.836777",
          "last_updusr_id": null,
          "last_updt_pnttm": "2025-09-05T14:12:49.836777"
        },
        {
          "menu_nm": "테스트 메뉴 1757049213",
          "progrm_file_nm": "/test-menu-1757049213",
          "menu_dc": "테스트용 메뉴입니다",
          "upper_menu_no": null,
          "menu_ordr": "3",
          "menu_level": null,
          "leaf_at": null,
          "relate_image_path": null,
          "relate_image_nm": null,
          "use_at": "Y",
          "delete_at": "N",
          "menu_id": null,
          "menu_no": "TEST_MENU_1757049213",
          "frst_register_id": "system",
          "frst_regist_pnttm": "2025-09-05T14:13:35.984351",
          "last_updusr_id": null,
          "last_updt_pnttm": "2025-09-05T14:13:35.984351"
        },
        {
          "menu_nm": "테스트 메뉴 1757049317",
          "progrm_file_nm": "/test-menu-1757049317",
          "menu_dc": "테스트용 메뉴입니다",
          "upper_menu_no": null,
          "menu_ordr": "4",
          "menu_level": null,
          "leaf_at": null,
          "relate_image_path": null,
          "relate_image_nm": null,
          "use_at": "Y",
          "delete_at": "N",
          "menu_id": null,
          "menu_no": "TEST_MENU_1757049317",
          "frst_register_id": "system",
          "frst_regist_pnttm": "2025-09-05T14:15:19.471190",
          "last_updusr_id": null,
          "last_updt_pnttm": "2025-09-05T14:15:19.471190"
        },
        {
          "menu_nm": "테스트 메뉴 1757049390",
          "progrm_file_nm": "/test-menu-1757049390",
          "menu_dc": "테스트용 메뉴입니다",
          "upper_menu_no": null,
          "menu_ordr": "5",
          "menu_level": null,
          "leaf_at": null,
          "relate_image_path": null,
          "relate_image_nm": null,
          "use_at": "Y",
          "delete_at": "N",
          "menu_id": null,
          "menu_no": "TEST_MENU_1757049390",
          "frst_register_id": "system",
          "frst_regist_pnttm": "2025-09-05T14:16:32.407410",
          "last_updusr_id": null,
          "last_updt_pnttm": "2025-09-05T14:16:32.407410"
        },
        {
          "menu_nm": "테스트 메뉴 1757049444",
          "progrm_file_nm": "/test-menu-1757049444",
          "menu_dc": "테스트용 메뉴입니다",
          "upper_menu_no": null,
          "menu_ordr": "6",
          "menu_level": null,
          "leaf_at": null,
          "relate_image_path": null,
          "relate_image_nm": null,
          "use_at": "Y",
          "delete_at": "N",
          "menu_id": null,
          "menu_no": "TEST_MENU_1757049444",
          "frst_register_id": "system",
          "frst_regist_pnttm": "2025-09-05T14:17:26.193947",
          "last_updusr_id": null,
          "last_updt_pnttm": "2025-09-05T14:17:26.193947"
        },
        {
          "menu_nm": "테스트 메뉴 1757051849",
          "progrm_file_nm": "/test-menu-1757051849",
          "menu_dc": "테스트용 메뉴입니다",
          "upper_menu_no": null,
          "menu_ordr": "7",
          "menu_level": null,
          "leaf_at": null,
          "relate_image_path": null,
          "relate_image_nm": null,
          "use_at": "Y",
          "delete_at": "N",
          "menu_id": null,
          "menu_no": "TEST_MENU_1757051849",
          "frst_register_id": "system",
          "frst_regist_pnttm": "2025-09-05T14:57:31.951427",
          "last_updusr_id": null,
          "last_updt_pnttm": "2025-09-05T14:57:31.951427"
        }
      ]
    },
    "error": null
  },
  {
    "timestamp": "2025-09-05T15:32:21.597924",
    "test_name": "GET /menus/statistics - 메뉴 통계 조회",
    "success": true,
    "response_data": {
      "status_code": 200,
      "data": {
        "total_menus": 12,
        "active_menus": 10,
        "inactive_menus": 2,
        "leaf_menus": 12,
        "max_depth": 2,
        "avg_children_per_menu": 0.3333333333333333
      }
    },
    "error": null
  },
  {
    "timestamp": "2025-09-05T15:32:23.636781",
    "test_name": "POST /menus/ - 메뉴 생성",
    "success": false,
    "response_data": {
      "status_code": 422,
      "data": "{\"detail\":[{\"type\":\"missing\",\"loc\":[\"body\",\"frst_register_id\"],\"msg\":\"Field required\",\"input\":{\"menu_no\":\"TEST_MENU_1757053941\",\"menu_nm\":\"테스트 메뉴\",\"menu_ty\":\"MENU\",\"menu_url\":\"/test\",\"use_at\":\"Y\",\"sort_ordr\":1}}]}"
    },
    "error": "Status: 422"
  },
  {
    "timestamp": "2025-09-05T15:32:25.699962",
    "test_name": "POST /menus/validate - 메뉴 검증",
    "success": false,
    "response_data": {
      "status_code": 422,
      "data": "{\"detail\":[{\"type\":\"missing\",\"loc\":[\"body\",\"frst_register_id\"],\"msg\":\"Field required\",\"input\":{\"menu_no\":\"VALIDATION_TEST\",\"menu_nm\":\"검증 테스트 메뉴\",\"menu_ty\":\"MENU\",\"menu_url\":\"/validation-test\",\"use_at\":\"Y\"}}]}"
    },
    "error": "Status: 422"
  },
  {
    "timestamp": "2025-09-05T15:32:27.737644",
    "test_name": "GET /menus/export/json - 메뉴 데이터 내보내기",
    "success": true,
    "response_data": {
      "status_code": 200,
      "data": {
        "export_id": "08ccdb6a-7659-4f08-9aeb-660159c099a1",
        "file_name": "menu_export_08ccdb6a.json",
        "file_size": 3445,
        "download_url": "/api/v1/files/download/menu_export_08ccdb6a.json",
        "expires_at": "2025-09-06T15:32:27.715599"
      }
    },
    "error": null
  }
]