[
  {
    "timestamp": "2025-09-05T15:33:20.356351",
    "test_name": "Authentication",
    "success": true,
    "response_data": {
      "status_code": 200,
      "token_acquired": true
    },
    "error": null
  },
  {
    "timestamp": "2025-09-05T15:33:23.716233",
    "test_name": "GET /menus/ - 메뉴 목록 조회",
    "success": true,
    "response_data": {
      "status_code": 200,
      "data": {
        "items": [
          {
            "menu_nm": "시스템관리",
            "progrm_file_nm": "",
            "menu_dc": "시스템 관리 메뉴",
            "upper_menu_no": null,
            "menu_ordr": "1",
            "menu_level": null,
            "leaf_at": null,
            "relate_image_path": null,
            "relate_image_nm": null,
            "use_at": "Y",
            "delete_at": "N",
            "menu_id": null,
            "menu_no": "1000000",
            "frst_register_id": "SYSTEM",
            "frst_regist_pnttm": "2025-09-02T17:22:50.252113",
            "last_updusr_id": null,
            "last_updt_pnttm": null
          },
          {
            "menu_nm": "사용자관리",
            "progrm_file_nm": "/admin/users",
            "menu_dc": "사용자 관리",
            "upper_menu_no": "1000000",
            "menu_ordr": "1",
            "menu_level": null,
            "leaf_at": null,
            "relate_image_path": null,
            "relate_image_nm": null,
            "use_at": "Y",
            "delete_at": "N",
            "menu_id": null,
            "menu_no": "1010000",
            "frst_register_id": "SYSTEM",
            "frst_regist_pnttm": "2025-09-02T17:22:50.252113",
            "last_updusr_id": null,
            "last_updt_pnttm": null
          },
          {
            "menu_nm": "권한관리",
            "progrm_file_nm": "/admin/auth",
            "menu_dc": "권한 관리",
            "upper_menu_no": "1000000",
            "menu_ordr": "2",
            "menu_level": null,
            "leaf_at": null,
            "relate_image_path": null,
            "relate_image_nm": null,
            "use_at": "Y",
            "delete_at": "N",
            "menu_id": null,
            "menu_no": "1020000",
            "frst_register_id": "SYSTEM",
            "frst_regist_pnttm": "2025-09-02T17:22:50.252113",
            "last_updusr_id": null,
            "last_updt_pnttm": null
          },
          {
            "menu_nm": "테스트 메뉴 1757049167",
            "progrm_file_nm": "/test-menu-1757049167",
            "menu_dc": "테스트용 메뉴입니다",
            "upper_menu_no": null,
            "menu_ordr": "2",
            "menu_level": null,
            "leaf_at": null,
            "relate_image_path": null,
            "relate_image_nm": null,
            "use_at": "Y",
            "delete_at": "N",
            "menu_id": null,
            "menu_no": "TEST_MENU_1757049167",
            "frst_register_id": "system",
            "frst_regist_pnttm": "2025-09-05T14:12:49.836777",
            "last_updusr_id": null,
            "last_updt_pnttm": "2025-09-05T14:12:49.836777"
          },
          {
            "menu_nm": "메뉴관리",
            "progrm_file_nm": "/admin/menus",
            "menu_dc": "메뉴 관리",
            "upper_menu_no": "1000000",
            "menu_ordr": "3",
            "menu_level": null,
            "leaf_at": null,
            "relate_image_path": null,
            "relate_image_nm": null,
            "use_at": "Y",
            "delete_at": "N",
            "menu_id": null,
            "menu_no": "1030000",
            "frst_register_id": "SYSTEM",
            "frst_regist_pnttm": "2025-09-02T17:22:50.252113",
            "last_updusr_id": null,
            "last_updt_pnttm": null
          },
          {
            "menu_nm": "테스트 메뉴 1757049213",
            "progrm_file_nm": "/test-menu-1757049213",
            "menu_dc": "테스트용 메뉴입니다",
            "upper_menu_no": null,
            "menu_ordr": "3",
            "menu_level": null,
            "leaf_at": null,
            "relate_image_path": null,
            "relate_image_nm": null,
            "use_at": "Y",
            "delete_at": "N",
            "menu_id": null,
            "menu_no": "TEST_MENU_1757049213",
            "frst_register_id": "system",
            "frst_regist_pnttm": "2025-09-05T14:13:35.984351",
            "last_updusr_id": null,
            "last_updt_pnttm": "2025-09-05T14:13:35.984351"
          },
          {
            "menu_nm": "테스트 메뉴 1757049317",
            "progrm_file_nm": "/test-menu-1757049317",
            "menu_dc": "테스트용 메뉴입니다",
            "upper_menu_no": null,
            "menu_ordr": "4",
            "menu_level": null,
            "leaf_at": null,
            "relate_image_path": null,
            "relate_image_nm": null,
            "use_at": "Y",
            "delete_at": "N",
            "menu_id": null,
            "menu_no": "TEST_MENU_1757049317",
            "frst_register_id": "system",
            "frst_regist_pnttm": "2025-09-05T14:15:19.471190",
            "last_updusr_id": null,
            "last_updt_pnttm": "2025-09-05T14:15:19.471190"
          },
          {
            "menu_nm": "테스트 메뉴 1757049390",
            "progrm_file_nm": "/test-menu-1757049390",
            "menu_dc": "테스트용 메뉴입니다",
            "upper_menu_no": null,
            "menu_ordr": "5",
            "menu_level": null,
            "leaf_at": null,
            "relate_image_path": null,
            "relate_image_nm": null,
            "use_at": "Y",
            "delete_at": "N",
            "menu_id": null,
            "menu_no": "TEST_MENU_1757049390",
            "frst_register_id": "system",
            "frst_regist_pnttm": "2025-09-05T14:16:32.407410",
            "last_updusr_id": null,
            "last_updt_pnttm": "2025-09-05T14:16:32.407410"
          },
          {
            "menu_nm": "테스트 메뉴 1757049444",
            "progrm_file_nm": "/test-menu-1757049444",
            "menu_dc": "테스트용 메뉴입니다",
            "upper_menu_no": null,
            "menu_ordr": "6",
            "menu_level": null,
            "leaf_at": null,
            "relate_image_path": null,
            "relate_image_nm": null,
            "use_at": "Y",
            "delete_at": "N",
            "menu_id": null,
            "menu_no": "TEST_MENU_1757049444",
            "frst_register_id": "system",
            "frst_regist_pnttm": "2025-09-05T14:17:26.193947",
            "last_updusr_id": null,
            "last_updt_pnttm": "2025-09-05T14:17:26.193947"
          },
          {
            "menu_nm": "테스트 메뉴 1757051849",
            "progrm_file_nm": "/test-menu-1757051849",
            "menu_dc": "테스트용 메뉴입니다",
            "upper_menu_no": null,
            "menu_ordr": "7",
            "menu_level": null,
            "leaf_at": null,
            "relate_image_path": null,
            "relate_image_nm": null,
            "use_at": "Y",
            "delete_at": "N",
            "menu_id": null,
            "menu_no": "TEST_MENU_1757051849",
            "frst_register_id": "system",
            "frst_regist_pnttm": "2025-09-05T14:57:31.951427",
            "last_updusr_id": null,
            "last_updt_pnttm": "2025-09-05T14:57:31.951427"
          }
        ],
        "total": 12,
        "page": 1,
        "size": 10,
        "pages": 2
      }
    },
    "error": null
  },
  {
    "timestamp": "2025-09-05T15:33:25.773857",
    "test_name": "GET /menus/tree - 메뉴 트리 조회",
    "success": true,
    "response_data": {
      "status_code": 200,
      "data": [
        {
          "menu_id": "1000000",
          "menu_nm": "시스템관리",
          "menu_level": "1",
          "menu_ordr": "1",
          "leaf_at": "N",
          "children": [
            {
              "menu_id": "1010000",
              "menu_nm": "사용자관리",
              "menu_level": "2",
              "menu_ordr": "1",
              "leaf_at": "Y",
              "children": []
            },
            {
              "menu_id": "1020000",
              "menu_nm": "권한관리",
              "menu_level": "2",
              "menu_ordr": "2",
              "leaf_at": "Y",
              "children": []
            },
            {
              "menu_id": "1030000",
              "menu_nm": "메뉴관리",
              "menu_level": "2",
              "menu_ordr": "3",
              "leaf_at": "Y",
              "children": []
            }
          ]
        },
        {
          "menu_id": "TEST_MENU_1757049167",
          "menu_nm": "테스트 메뉴 1757049167",
          "menu_level": "1",
          "menu_ordr": "2",
          "leaf_at": "Y",
          "children": []
        },
        {
          "menu_id": "TEST_MENU_1757049213",
          "menu_nm": "테스트 메뉴 1757049213",
          "menu_level": "1",
          "menu_ordr": "3",
          "leaf_at": "Y",
          "children": []
        },
        {
          "menu_id": "TEST_MENU_1757049317",
          "menu_nm": "테스트 메뉴 1757049317",
          "menu_level": "1",
          "menu_ordr": "4",
          "leaf_at": "Y",
          "children": []
        },
        {
          "menu_id": "TEST_MENU_1757049390",
          "menu_nm": "테스트 메뉴 1757049390",
          "menu_level": "1",
          "menu_ordr": "5",
          "leaf_at": "Y",
          "children": []
        },
        {
          "menu_id": "TEST_MENU_1757049444",
          "menu_nm": "테스트 메뉴 1757049444",
          "menu_level": "1",
          "menu_ordr": "6",
          "leaf_at": "Y",
          "children": []
        },
        {
          "menu_id": "TEST_MENU_1757051849",
          "menu_nm": "테스트 메뉴 1757051849",
          "menu_level": "1",
          "menu_ordr": "7",
          "leaf_at": "Y",
          "children": []
        }
      ]
    },
    "error": null
  },
  {
    "timestamp": "2025-09-05T15:33:27.833697",
    "test_name": "GET /menus/root - 루트 메뉴 조회",
    "success": true,
    "response_data": {
      "status_code": 200,
      "data": [
        {
          "menu_nm": "시스템관리",
          "progrm_file_nm": "",
          "menu_dc": "시스템 관리 메뉴",
          "upper_menu_no": null,
          "menu_ordr": "1",
          "menu_level": null,
          "leaf_at": null,
          "relate_image_path": null,
          "relate_image_nm": null,
          "use_at": "Y",
          "delete_at": "N",
          "menu_id": null,
          "menu_no": "1000000",
          "frst_register_id": "SYSTEM",
          "frst_regist_pnttm": "2025-09-02T17:22:50.252113",
          "last_updusr_id": null,
          "last_updt_pnttm": null
        },
        {
          "menu_nm": "테스트 메뉴 1757049167",
          "progrm_file_nm": "/test-menu-1757049167",
          "menu_dc": "테스트용 메뉴입니다",
          "upper_menu_no": null,
          "menu_ordr": "2",
          "menu_level": null,
          "leaf_at": null,
          "relate_image_path": null,
          "relate_image_nm": null,
          "use_at": "Y",
          "delete_at": "N",
          "menu_id": null,
          "menu_no": "TEST_MENU_1757049167",
          "frst_register_id": "system",
          "frst_regist_pnttm": "2025-09-05T14:12:49.836777",
          "last_updusr_id": null,
          "last_updt_pnttm": "2025-09-05T14:12:49.836777"
        },
        {
          "menu_nm": "테스트 메뉴 1757049213",
          "progrm_file_nm": "/test-menu-1757049213",
          "menu_dc": "테스트용 메뉴입니다",
          "upper_menu_no": null,
          "menu_ordr": "3",
          "menu_level": null,
          "leaf_at": null,
          "relate_image_path": null,
          "relate_image_nm": null,
          "use_at": "Y",
          "delete_at": "N",
          "menu_id": null,
          "menu_no": "TEST_MENU_1757049213",
          "frst_register_id": "system",
          "frst_regist_pnttm": "2025-09-05T14:13:35.984351",
          "last_updusr_id": null,
          "last_updt_pnttm": "2025-09-05T14:13:35.984351"
        },
        {
          "menu_nm": "테스트 메뉴 1757049317",
          "progrm_file_nm": "/test-menu-1757049317",
          "menu_dc": "테스트용 메뉴입니다",
          "upper_menu_no": null,
          "menu_ordr": "4",
          "menu_level": null,
          "leaf_at": null,
          "relate_image_path": null,
          "relate_image_nm": null,
          "use_at": "Y",
          "delete_at": "N",
          "menu_id": null,
          "menu_no": "TEST_MENU_1757049317",
          "frst_register_id": "system",
          "frst_regist_pnttm": "2025-09-05T14:15:19.471190",
          "last_updusr_id": null,
          "last_updt_pnttm": "2025-09-05T14:15:19.471190"
        },
        {
          "menu_nm": "테스트 메뉴 1757049390",
          "progrm_file_nm": "/test-menu-1757049390",
          "menu_dc": "테스트용 메뉴입니다",
          "upper_menu_no": null,
          "menu_ordr": "5",
          "menu_level": null,
          "leaf_at": null,
          "relate_image_path": null,
          "relate_image_nm": null,
          "use_at": "Y",
          "delete_at": "N",
          "menu_id": null,
          "menu_no": "TEST_MENU_1757049390",
          "frst_register_id": "system",
          "frst_regist_pnttm": "2025-09-05T14:16:32.407410",
          "last_updusr_id": null,
          "last_updt_pnttm": "2025-09-05T14:16:32.407410"
        },
        {
          "menu_nm": "테스트 메뉴 1757049444",
          "progrm_file_nm": "/test-menu-1757049444",
          "menu_dc": "테스트용 메뉴입니다",
          "upper_menu_no": null,
          "menu_ordr": "6",
          "menu_level": null,
          "leaf_at": null,
          "relate_image_path": null,
          "relate_image_nm": null,
          "use_at": "Y",
          "delete_at": "N",
          "menu_id": null,
          "menu_no": "TEST_MENU_1757049444",
          "frst_register_id": "system",
          "frst_regist_pnttm": "2025-09-05T14:17:26.193947",
          "last_updusr_id": null,
          "last_updt_pnttm": "2025-09-05T14:17:26.193947"
        },
        {
          "menu_nm": "테스트 메뉴 1757051849",
          "progrm_file_nm": "/test-menu-1757051849",
          "menu_dc": "테스트용 메뉴입니다",
          "upper_menu_no": null,
          "menu_ordr": "7",
          "menu_level": null,
          "leaf_at": null,
          "relate_image_path": null,
          "relate_image_nm": null,
          "use_at": "Y",
          "delete_at": "N",
          "menu_id": null,
          "menu_no": "TEST_MENU_1757051849",
          "frst_register_id": "system",
          "frst_regist_pnttm": "2025-09-05T14:57:31.951427",
          "last_updusr_id": null,
          "last_updt_pnttm": "2025-09-05T14:57:31.951427"
        }
      ]
    },
    "error": null
  },
  {
    "timestamp": "2025-09-05T15:33:29.914664",
    "test_name": "GET /menus/statistics - 메뉴 통계 조회",
    "success": true,
    "response_data": {
      "status_code": 200,
      "data": {
        "total_menus": 12,
        "active_menus": 10,
        "inactive_menus": 2,
        "leaf_menus": 12,
        "max_depth": 2,
        "avg_children_per_menu": 0.3333333333333333
      }
    },
    "error": null
  },
  {
    "timestamp": "2025-09-05T15:33:31.991028",
    "test_name": "POST /menus/ - 메뉴 생성",
    "success": false,
    "response_data": {
      "status_code": 500,
      "data": "{\"detail\":\"메뉴 생성 중 오류가 발생했습니다: (psycopg2.errors.NotNullViolation) 오류:  \\\"progrm_file_nm\\\" 칼럼(해당 릴레이션 \\\"tb_menuinfo\\\")의 null 값이 not null 제약조건을 위반했습니다.\\nDETAIL:  실패한 자료: (TEST_MENU_1757054009, 테스트 메뉴, null, null, 10, null, null, null, Y, N, null, 2025-09-05 15:33:31.976013, system, 2025-09-05 15:33:31.976013, null)\\n\\n[SQL: INSERT INTO skybootcore.tb_menuinfo (menu_no, menu_nm, progrm_file_nm, upper_menu_no, menu_ordr, menu_dc, relate_image_path, relate_image_nm, display_yn, use_tag_yn, menu_tag, frst_regist_pnttm, frst_register_id, last_updt_pnttm, last_updusr_id) VALUES (%(menu_no)s, %(menu_nm)s, %(progrm_file_nm)s, %(upper_menu_no)s, %(menu_ordr)s, %(menu_dc)s, %(relate_image_path)s, %(relate_image_nm)s, %(display_yn)s, %(use_tag_yn)s, %(menu_tag)s, %(frst_regist_pnttm)s, %(frst_register_id)s, %(last_updt_pnttm)s, %(last_updusr_id)s)]\\n[parameters: {'menu_no': 'TEST_MENU_1757054009', 'menu_nm': '테스트 메뉴', 'progrm_file_nm': None, 'upper_menu_no': None, 'menu_ordr': Decimal('10'), 'menu_dc': None, 'relate_image_path': None, 'relate_image_nm': None, 'display_yn': 'Y', 'use_tag_yn': 'N', 'menu_tag': None, 'frst_regist_pnttm': datetime.datetime(2025, 9, 5, 15, 33, 31, 976013), 'frst_register_id': 'system', 'last_updt_pnttm': datetime.datetime(2025, 9, 5, 15, 33, 31, 976013), 'last_updusr_id': None}]\\n(Background on this error at: https://sqlalche.me/e/20/gkpj)\"}"
    },
    "error": "Status: 500"
  },
  {
    "timestamp": "2025-09-05T15:33:34.056452",
    "test_name": "POST /menus/validate - 메뉴 검증",
    "success": true,
    "response_data": {
      "status_code": 200,
      "data": {
        "is_valid": true,
        "validation_results": [
          {
            "is_valid": true,
            "menu_id": "VALIDATION_TEST",
            "errors": [],
            "warnings": [],
            "suggestions": []
          }
        ],
        "summary": {
          "total_checked": 1,
          "valid_count": 1,
          "error_count": 0,
          "warning_count": 0
        }
      }
    },
    "error": null
  },
  {
    "timestamp": "2025-09-05T15:33:36.129483",
    "test_name": "GET /menus/export/json - 메뉴 데이터 내보내기",
    "success": true,
    "response_data": {
      "status_code": 200,
      "data": {
        "export_id": "e9a02b61-0e8d-4e77-b1bd-82854902022e",
        "file_name": "menu_export_e9a02b61.json",
        "file_size": 3445,
        "download_url": "/api/v1/files/download/menu_export_e9a02b61.json",
        "expires_at": "2025-09-06T15:33:36.122722"
      }
    },
    "error": null
  }
]